[gd_scene load_steps=3 format=2]

[ext_resource path="res://effects/NecroLight1.gd" type="Script" id=1]
[ext_resource path="res://effects/power1.png" type="Texture" id=2]

[node name="NecroLight3" type="Node2D"]
script = ExtResource( 1 )

[node name="Sprite" type="Light2D" parent="."]
position = Vector2( 0, -8.65848 )
scale = Vector2( 1, 0.348703 )
z_index = 6
texture = ExtResource( 2 )
color = Color( 0.360784, 1, 0.368627, 1 )

[node name="Timer" type="Timer" parent="."]
wait_time = 0.5
autostart = true

[node name="ToggleTimer" type="Timer" parent="."]
wait_time = 0.05

[connection signal="timeout" from="Timer" to="." method="_on_Timer_timeout"]
[connection signal="timeout" from="ToggleTimer" to="." method="_on_ToggleTimer_timeout"]
